index
…
extract_cluster_assignment(kmeans_fit)
#> # A tibble: 898 × 1
#>    .cluster 
#>    <fct>    
#>  1 Cluster_1
#>  2 Cluster_2
#>  3 Cluster_1
#>  4 Cluster_2
#>  5 Cluster_2
#>  6 Cluster_2
#>  7 Cluster_1
#>  8 Cluster_2
#>  9 Cluster_1
#> 10 Cluster_1
#> # … with 888 more rows
#> # ℹ Use `print(n = ...)` to see more rows
…
